{
  "type": "external",
  "name": "chootools",
  "version": "4.10.5",
  "revision": "9747",
  "path": "externals\/chootools",
  "repository": null,
  "sku": null,
  "date": "Thu, 19 Sep 2019 10:28:19 +0000",
  "title": "Chootools",
  "description": null,
  "thumb": null,
  "developer": null,
  "authors": [
    "Webligo Developments"
  ],
  "meta": {
    "date": "Thu, 19 Sep 2019 10:28:19 +0000",
    "title": "Chootools",
    "description": null,
    "developer": null,
    "authors": [
      "Webligo Developments"
    ],
    "changeLog": null
  },
  "actions": [
    
  ],
  "callback": null,
  "dependencies": null,
  "tests": [
    
  ],
  "permissions": [
    
  ],
  "structure": {
    "externals\/chootools": {
      "type": "directory",
      "path": "externals\/chootools",
      "structure": [
        {
          "path": "chootools.js",
          "dir": false,
          "file": true,
          "perms": "0644",
          "size": 30490,
          "sha1": "cbcd9124fc3744a0f7bb716abbd95bba058a7709"
        },
        {
          "path": "manifest.php",
          "dir": false,
          "file": true,
          "perms": "0644",
          "size": 435,
          "sha1": "a26f9e1a50d0e13256190f7c9c6dc705ebff3304"
        }
      ]
    }
  }
}