{
  "type": "module",
  "name": "radcodes",
  "version": "4.10.0",
  "revision": null,
  "path": "application\/modules\/Radcodes",
  "repository": null,
  "sku": null,
  "date": "Wed, 06 Mar 2019 07:52:57 +0000",
  "title": "Radcodes Core Library",
  "description": "This module is Radcodes Core Library, and is required by all SocialEngine Modules developed by Radcodes.",
  "thumb": null,
  "developer": null,
  "authors": [
    "Radcodes"
  ],
  "meta": {
    "date": "Wed, 06 Mar 2019 07:52:57 +0000",
    "title": "Radcodes Core Library",
    "description": "This module is Radcodes Core Library, and is required by all SocialEngine Modules developed by Radcodes.",
    "developer": null,
    "authors": [
      "Radcodes"
    ],
    "changeLog": null
  },
  "actions": [
    "install",
    "upgrade",
    "refresh",
    "enable",
    "disable"
  ],
  "callback": {
    "path": null,
    "class": "Engine_Package_Installer_Module",
    "priority": 100
  },
  "dependencies": {
    "module-core": {
      "type": "module",
      "name": "core",
      "guid": "module-core",
      "minVersion": "4.10.0",
      "maxVersion": null,
      "excludeExcept": null
    }
  },
  "tests": [
    
  ],
  "permissions": [
    
  ],
  "structure": {
    "application\/modules\/Radcodes": {
      "type": "directory",
      "path": "application\/modules\/Radcodes",
      "structure": [
        {
          "path": "Api",
          "dir": true,
          "file": false,
          "perms": "0777",
          "size": 4096,
          "sha1": null
        },
        {
          "path": "Api\/Abstract.php",
          "dir": false,
          "file": true,
          "perms": "0666",
          "size": 5555,
          "sha1": "7923b4418cfe536d063d0edfacc8d6027daed118"
        },
        {
          "path": "Api\/Category.php",
          "dir": false,
          "file": true,
          "perms": "0666",
          "size": 966,
          "sha1": "da1cde1b43d6ecf76301dc8e7332785623dac5cc"
        },
        {
          "path": "Api\/Core.php",
          "dir": false,
          "file": true,
          "perms": "0666",
          "size": 8162,
          "sha1": "53ca0ba29036a60d9af16a2c0d493fe28b309d1a"
        },
        {
          "path": "Api\/Debug.php",
          "dir": false,
          "file": true,
          "perms": "0666",
          "size": 1953,
          "sha1": "9768e5dc0e0101f17ffff5d61a2db925231856da"
        },
        {
          "path": "Api\/Filter.php",
          "dir": false,
          "file": true,
          "perms": "0666",
          "size": 886,
          "sha1": "1368816bcdc592ce302579d176aae95d31491321"
        },
        {
          "path": "Api\/Location.php",
          "dir": false,
          "file": true,
          "perms": "0666",
          "size": 6856,
          "sha1": "6f4d52c7e78aa463fd8dabb91dbaf6a34003acda"
        },
        {
          "path": "Api\/Map.php",
          "dir": false,
          "file": true,
          "perms": "0666",
          "size": 1092,
          "sha1": "c54bd434faa6cf515bde4eb3ab6c1dc25097d862"
        },
        {
          "path": "Api\/Profile.php",
          "dir": false,
          "file": true,
          "perms": "0666",
          "size": 2888,
          "sha1": "4fc6dbc122f0d55608747f0e606169ad5f267388"
        },
        {
          "path": "Bootstrap.php",
          "dir": false,
          "file": true,
          "perms": "0666",
          "size": 403,
          "sha1": "51c1be5cf457ecffd81c4a41be95e4cb24c8dac8"
        },
        {
          "path": "Controller",
          "dir": true,
          "file": false,
          "perms": "0777",
          "size": 0,
          "sha1": null
        },
        {
          "path": "Controller\/AdminCategoriesAbstract.php",
          "dir": false,
          "file": true,
          "perms": "0666",
          "size": 13259,
          "sha1": "e0fc8a7af8eb133450dad5b4fa8dc1bef5eda0a7"
        },
        {
          "path": "controllers",
          "dir": true,
          "file": false,
          "perms": "0777",
          "size": 4096,
          "sha1": null
        },
        {
          "path": "controllers\/AdminIndexController.php",
          "dir": false,
          "file": true,
          "perms": "0666",
          "size": 611,
          "sha1": "5b22bc1384ac1a30e283af4a1100374137a6fcfa"
        },
        {
          "path": "controllers\/AdminPluginsController.php",
          "dir": false,
          "file": true,
          "perms": "0666",
          "size": 2080,
          "sha1": "8337bf7cab1f2dcd2a9516e93b42948f9e033492"
        },
        {
          "path": "controllers\/AdminSettingsController.php",
          "dir": false,
          "file": true,
          "perms": "0666",
          "size": 960,
          "sha1": "414ae84a6158764af374a2d98ad63f94bba97c5c"
        },
        {
          "path": "controllers\/AdminToolkitsController.php",
          "dir": false,
          "file": true,
          "perms": "0666",
          "size": 7282,
          "sha1": "24257849fce847f710b971a1c277d7467a4c238f"
        },
        {
          "path": "controllers\/IndexController.php",
          "dir": false,
          "file": true,
          "perms": "0666",
          "size": 5982,
          "sha1": "7fa460547cc99f08e2ae8627175b8f9f39d7afc0"
        },
        {
          "path": "externals",
          "dir": true,
          "file": false,
          "perms": "0777",
          "size": 0,
          "sha1": null
        },
        {
          "path": "externals\/.htaccess",
          "dir": false,
          "file": true,
          "perms": "0666",
          "size": 147,
          "sha1": "9f1638a8edbe1c5d28789e017fb35b2f2465f01e"
        },
        {
          "path": "externals\/images",
          "dir": true,
          "file": false,
          "perms": "0777",
          "size": 4096,
          "sha1": null
        },
        {
          "path": "externals\/images\/admin",
          "dir": true,
          "file": false,
          "perms": "0777",
          "size": 0,
          "sha1": null
        },
        {
          "path": "externals\/images\/admin\/move_category.png",
          "dir": false,
          "file": true,
          "perms": "0666",
          "size": 745,
          "sha1": "0851b459129021751a07297acca2edbb157fd91f"
        },
        {
          "path": "externals\/images\/admin\/package",
          "dir": true,
          "file": false,
          "perms": "0777",
          "size": 0,
          "sha1": null
        },
        {
          "path": "externals\/images\/category",
          "dir": true,
          "file": false,
          "perms": "0777",
          "size": 4096,
          "sha1": null
        },
        {
          "path": "externals\/images\/category\/arrow_down_blue.png",
          "dir": false,
          "file": true,
          "perms": "0666",
          "size": 326,
          "sha1": "6bb0698ddde6ebf85228f62873465992a526b79e"
        },
        {
          "path": "externals\/images\/category\/arrow_down_gray.png",
          "dir": false,
          "file": true,
          "perms": "0666",
          "size": 327,
          "sha1": "956e303c0e0e1b8ec58b6a61d6dc6dcbe416e76a"
        },
        {
          "path": "externals\/images\/category\/arrow_left_blue.png",
          "dir": false,
          "file": true,
          "perms": "0666",
          "size": 310,
          "sha1": "d462ab95a2bcf0ee386eefa155279dee7f18a781"
        },
        {
          "path": "externals\/images\/category\/arrow_left_gray.png",
          "dir": false,
          "file": true,
          "perms": "0666",
          "size": 309,
          "sha1": "7a316f3311b2305a5f4863a9cc5431f7501b7317"
        },
        {
          "path": "externals\/images\/category\/bullet_arrow_down.png",
          "dir": false,
          "file": true,
          "perms": "0666",
          "size": 295,
          "sha1": "e36ebca63749e9eab3978d06a25cfc5a1cefa55f"
        },
        {
          "path": "externals\/images\/category\/bullet_arrow_right.png",
          "dir": false,
          "file": true,
          "perms": "0666",
          "size": 292,
          "sha1": "a28375e265bc674834d4567657f9008899e469e9"
        },
        {
          "path": "externals\/images\/category\/category.png",
          "dir": false,
          "file": true,
          "perms": "0666",
          "size": 395,
          "sha1": "969e0c90a972ea665289044417d14bd36367e9c3"
        },
        {
          "path": "externals\/images\/Fugue-Icons.txt",
          "dir": false,
          "file": true,
          "perms": "0666",
          "size": 2170,
          "sha1": "4dff7a52689b2aec6b6eb4e299cfb0249c9afb3e"
        },
        {
          "path": "externals\/images\/slideitmoo",
          "dir": true,
          "file": false,
          "perms": "0777",
          "size": 4096,
          "sha1": null
        },
        {
          "path": "externals\/images\/slideitmoo\/back.png",
          "dir": false,
          "file": true,
          "perms": "0666",
          "size": 855,
          "sha1": "7219382f57b40eaa8445ad3ae2daa9533402d0d7"
        },
        {
          "path": "externals\/images\/slideitmoo\/forward.png",
          "dir": false,
          "file": true,
          "perms": "0666",
          "size": 837,
          "sha1": "bf671a339e4ba0d8ab4afc9b688ede8670c2fe31"
        },
        {
          "path": "externals\/images\/slideitmoo\/next.png",
          "dir": false,
          "file": true,
          "perms": "0666",
          "size": 209,
          "sha1": "2ec3c41a64becac61bc0bcce61055a115df25931"
        },
        {
          "path": "externals\/images\/slideitmoo\/next_on.png",
          "dir": false,
          "file": true,
          "perms": "0666",
          "size": 261,
          "sha1": "832500ad072569f36c09c07bac67553fd5f7a7c1"
        },
        {
          "path": "externals\/images\/slideitmoo\/prev.png",
          "dir": false,
          "file": true,
          "perms": "0666",
          "size": 203,
          "sha1": "b52463564c40611027eaabfe0af17c61b876a8c8"
        },
        {
          "path": "externals\/images\/slideitmoo\/prev_on.png",
          "dir": false,
          "file": true,
          "perms": "0666",
          "size": 260,
          "sha1": "a21c02a5a54c44fab306765998489989a4582674"
        },
        {
          "path": "externals\/images\/slideshow",
          "dir": true,
          "file": false,
          "perms": "0777",
          "size": 0,
          "sha1": null
        },
        {
          "path": "externals\/images\/slideshow\/buttons.png",
          "dir": false,
          "file": true,
          "perms": "0666",
          "size": 2336,
          "sha1": "0e41fb0137f1f44edd319d879d1626fa8a37ad84"
        },
        {
          "path": "externals\/images\/star.gif",
          "dir": false,
          "file": true,
          "perms": "0666",
          "size": 1691,
          "sha1": "a7e76754abf662984c9c35a8d47595972d91a26d"
        },
        {
          "path": "externals\/scripts",
          "dir": true,
          "file": false,
          "perms": "0777",
          "size": 4096,
          "sha1": null
        },
        {
          "path": "externals\/scripts\/doubleselect.js",
          "dir": false,
          "file": true,
          "perms": "0666",
          "size": 3727,
          "sha1": "bacc1428292997599eccb401dabf64d2b7bca14e"
        },
        {
          "path": "externals\/scripts\/rating.js",
          "dir": false,
          "file": true,
          "perms": "0666",
          "size": 4228,
          "sha1": "b9e9f73b13e3882e6ebf731b7995e1e975ac0265"
        },
        {
          "path": "externals\/scripts\/slideitmoo.js",
          "dir": false,
          "file": true,
          "perms": "0666",
          "size": 11307,
          "sha1": "ffc65239c428805ebb566c30af8f76df2794e8aa"
        },
        {
          "path": "externals\/scripts\/slideshow.js",
          "dir": false,
          "file": true,
          "perms": "0666",
          "size": 5533,
          "sha1": "1de1895c85376229c2dfc9b585081ba81f75fb6d"
        },
        {
          "path": "externals\/scripts\/ticker.js",
          "dir": false,
          "file": true,
          "perms": "0666",
          "size": 1919,
          "sha1": "6d847b2be3d20702e366c89611e78ac16c0562e8"
        },
        {
          "path": "externals\/styles",
          "dir": true,
          "file": false,
          "perms": "0777",
          "size": 0,
          "sha1": null
        },
        {
          "path": "externals\/styles\/admin",
          "dir": true,
          "file": false,
          "perms": "0777",
          "size": 0,
          "sha1": null
        },
        {
          "path": "externals\/styles\/admin\/main.css",
          "dir": false,
          "file": true,
          "perms": "0666",
          "size": 7590,
          "sha1": "363a3bd5fb53d1a5dcafb0127ab57ee5c80c0e37"
        },
        {
          "path": "externals\/styles\/main.css",
          "dir": false,
          "file": true,
          "perms": "0666",
          "size": 10373,
          "sha1": "af1b3674d5bd415bf64f2e46182df754379e38e9"
        },
        {
          "path": "Form",
          "dir": true,
          "file": false,
          "perms": "0777",
          "size": 0,
          "sha1": null
        },
        {
          "path": "Form\/Admin",
          "dir": true,
          "file": false,
          "perms": "0777",
          "size": 0,
          "sha1": null
        },
        {
          "path": "Form\/Admin\/Category",
          "dir": true,
          "file": false,
          "perms": "0777",
          "size": 4096,
          "sha1": null
        },
        {
          "path": "Form\/Admin\/Category\/Abstract.php",
          "dir": false,
          "file": true,
          "perms": "0666",
          "size": 1151,
          "sha1": "7db6c4cac9a6b8a484ee1c21e6d21255c2862a72"
        },
        {
          "path": "Form\/Admin\/Category\/Create.php",
          "dir": false,
          "file": true,
          "perms": "0666",
          "size": 2165,
          "sha1": "481dcd8bc70a2a788df8771fb153a9500068828c"
        },
        {
          "path": "Form\/Admin\/Category\/Delete.php",
          "dir": false,
          "file": true,
          "perms": "0666",
          "size": 2234,
          "sha1": "0540d0bd6dc05b1ed2ada32889654fd26a4ff41b"
        },
        {
          "path": "Form\/Admin\/Category\/Edit.php",
          "dir": false,
          "file": true,
          "perms": "0666",
          "size": 641,
          "sha1": "9279e006a296087d09165c0e381c504ecddb1695"
        },
        {
          "path": "Form\/Admin\/Category\/Move.php",
          "dir": false,
          "file": true,
          "perms": "0666",
          "size": 2063,
          "sha1": "db796d1b1b859cd68b3898c67bf4b36ee55527ea"
        },
        {
          "path": "Form\/Admin\/Category\/Photo.php",
          "dir": false,
          "file": true,
          "perms": "0666",
          "size": 1315,
          "sha1": "6d3050e3d99aa2b54922ebb228880ae91903edb3"
        },
        {
          "path": "Form\/Admin\/Category\/ProfileType.php",
          "dir": false,
          "file": true,
          "perms": "0666",
          "size": 1666,
          "sha1": "778186b0f75a605d5458d936f57879514ead3945"
        },
        {
          "path": "Form\/Admin\/Global.php",
          "dir": false,
          "file": true,
          "perms": "0666",
          "size": 2728,
          "sha1": "0dd7a63ed7b9fd851dcbc3aca42f1ceae886073c"
        },
        {
          "path": "Form\/Element",
          "dir": true,
          "file": false,
          "perms": "0777",
          "size": 0,
          "sha1": null
        },
        {
          "path": "Form\/Element\/DoubleSelect.php",
          "dir": false,
          "file": true,
          "perms": "0666",
          "size": 5058,
          "sha1": "d756cac976f2f44beff70ef65a27d8b72b954692"
        },
        {
          "path": "Form\/Fields",
          "dir": true,
          "file": false,
          "perms": "0777",
          "size": 0,
          "sha1": null
        },
        {
          "path": "Form\/Fields\/Search.php",
          "dir": false,
          "file": true,
          "perms": "0666",
          "size": 1047,
          "sha1": "2542810838982aa2633c5fc839afe61b2c6e8068"
        },
        {
          "path": "Lib",
          "dir": true,
          "file": false,
          "perms": "0777",
          "size": 4096,
          "sha1": null
        },
        {
          "path": "Lib\/Fields",
          "dir": true,
          "file": false,
          "perms": "0777",
          "size": 0,
          "sha1": null
        },
        {
          "path": "Lib\/Fields\/Form",
          "dir": true,
          "file": false,
          "perms": "0777",
          "size": 0,
          "sha1": null
        },
        {
          "path": "Lib\/Fields\/Form\/Search.php",
          "dir": false,
          "file": true,
          "perms": "0666",
          "size": 4807,
          "sha1": "713d86c4cef1b4fec89746f6b6780a79245ee281"
        },
        {
          "path": "Lib\/File.php",
          "dir": false,
          "file": true,
          "perms": "0666",
          "size": 347,
          "sha1": "6f6ad66f29e5e80e632a61558dbff32c8a1f7d79"
        },
        {
          "path": "Lib\/Filter",
          "dir": true,
          "file": false,
          "perms": "0777",
          "size": 0,
          "sha1": null
        },
        {
          "path": "Lib\/Filter\/Null.php",
          "dir": false,
          "file": true,
          "perms": "0666",
          "size": 5121,
          "sha1": "eec425f7dd8db8be8cfa2d6aaedf244f4469ddcb"
        },
        {
          "path": "Lib\/Google",
          "dir": true,
          "file": false,
          "perms": "0777",
          "size": 0,
          "sha1": null
        },
        {
          "path": "Lib\/Google\/Map",
          "dir": true,
          "file": false,
          "perms": "0777",
          "size": 4096,
          "sha1": null
        },
        {
          "path": "Lib\/Google\/Map\/Bounds.php",
          "dir": false,
          "file": true,
          "perms": "0666",
          "size": 13859,
          "sha1": "27e0a757376736de9864057870a3af573f64b775"
        },
        {
          "path": "Lib\/Google\/Map\/Cache.php",
          "dir": false,
          "file": true,
          "perms": "0666",
          "size": 1139,
          "sha1": "f31b744bf47636f35b75d411f36117e1a432a679"
        },
        {
          "path": "Lib\/Google\/Map\/Client.php",
          "dir": false,
          "file": true,
          "perms": "0666",
          "size": 6509,
          "sha1": "de7d5219597c95f9280a50116d9dd7d1ecc9fa0f"
        },
        {
          "path": "Lib\/Google\/Map\/Config.php",
          "dir": false,
          "file": true,
          "perms": "0666",
          "size": 642,
          "sha1": "c9fc07255f298ee9def839faeaf3a4b34a9ac279"
        },
        {
          "path": "Lib\/Google\/Map\/Coord.php",
          "dir": false,
          "file": true,
          "perms": "0666",
          "size": 10342,
          "sha1": "f32bcbf590b1013f918be6a2fdd87348ecb1f510"
        },
        {
          "path": "Lib\/Google\/Map\/Direction.php",
          "dir": false,
          "file": true,
          "perms": "0666",
          "size": 8861,
          "sha1": "d8269ff6e02c2a4cb39f5318019941cdedaecd72"
        },
        {
          "path": "Lib\/Google\/Map\/DirectionWaypoint.php",
          "dir": false,
          "file": true,
          "perms": "0666",
          "size": 3515,
          "sha1": "4e8f2e80c910dd048560b33f65dabeb628990b55"
        },
        {
          "path": "Lib\/Google\/Map\/Event.php",
          "dir": false,
          "file": true,
          "perms": "0666",
          "size": 2990,
          "sha1": "2b5e25ee08ff6be587088cca1ede7cadc54c559b"
        },
        {
          "path": "Lib\/Google\/Map\/Exception.php",
          "dir": false,
          "file": true,
          "perms": "0666",
          "size": 77,
          "sha1": "48bd81c913d64acd1fafcaa7bd26f046c1d8f3ec"
        },
        {
          "path": "Lib\/Google\/Map\/GeocodedAddress.php",
          "dir": false,
          "file": true,
          "perms": "0666",
          "size": 13164,
          "sha1": "200558e527976ef5b84f494c9df76d67ce7efdab"
        },
        {
          "path": "Lib\/Google\/Map\/Icon.php",
          "dir": false,
          "file": true,
          "perms": "0666",
          "size": 3909,
          "sha1": "2aa421594a854fdd9db1bbf8e358c5713d162401"
        },
        {
          "path": "Lib\/Google\/Map\/InfoWindow.php",
          "dir": false,
          "file": true,
          "perms": "0666",
          "size": 7524,
          "sha1": "207007cf869ec9a32321721b61e9c3e032719bdf"
        },
        {
          "path": "Lib\/Google\/Map\/LICENSE",
          "dir": false,
          "file": true,
          "perms": "0666",
          "size": 1067,
          "sha1": "fd2e2acce74bccd312534dd38566e988893944a8"
        },
        {
          "path": "Lib\/Google\/Map\/Marker.php",
          "dir": false,
          "file": true,
          "perms": "0666",
          "size": 11248,
          "sha1": "c68578a3cf941e78d543756f7273f9e4597eb938"
        },
        {
          "path": "Lib\/Google\/Map\/MarkerImage.php",
          "dir": false,
          "file": true,
          "perms": "0666",
          "size": 6799,
          "sha1": "06959ff86350e0cc409c6d8b6591330995eff2a3"
        },
        {
          "path": "Lib\/Google\/Map\/RenderTag.php",
          "dir": false,
          "file": true,
          "perms": "0666",
          "size": 4202,
          "sha1": "cb9e6f3ecd22734cf3239f3a1bd5b5f25d966978"
        },
        {
          "path": "Lib\/Google\/Map.php",
          "dir": false,
          "file": true,
          "perms": "0666",
          "size": 27561,
          "sha1": "b43b490725408dbe564b5cdf1ab7e25d6b80bbb3"
        },
        {
          "path": "Lib\/Helper",
          "dir": true,
          "file": false,
          "perms": "0777",
          "size": 4096,
          "sha1": null
        },
        {
          "path": "Lib\/Helper\/Date.php",
          "dir": false,
          "file": true,
          "perms": "0666",
          "size": 1471,
          "sha1": "22fcbd51db2143e6cbc9430471b62dc8bda193ad"
        },
        {
          "path": "Lib\/Helper\/Inflector.php",
          "dir": false,
          "file": true,
          "perms": "0666",
          "size": 13189,
          "sha1": "34bf7707426a4cf19f319a5f8658e4bab29600cf"
        },
        {
          "path": "Lib\/Helper\/Map.php",
          "dir": false,
          "file": true,
          "perms": "0666",
          "size": 366,
          "sha1": "10d0844ba28bedc61721f00c6fe15d4bf3149254"
        },
        {
          "path": "Lib\/Helper\/Number.php",
          "dir": false,
          "file": true,
          "perms": "0666",
          "size": 366,
          "sha1": "e7d5adacf96797439b5621cf47c1fb11ed3e933a"
        },
        {
          "path": "Lib\/Helper\/Text.php",
          "dir": false,
          "file": true,
          "perms": "0666",
          "size": 2176,
          "sha1": "8f49f5722356a7dee09321d20114d546d3e8b015"
        },
        {
          "path": "Lib\/Helper\/Unit.php",
          "dir": false,
          "file": true,
          "perms": "0666",
          "size": 666,
          "sha1": "1f3215a6e3044e60390662ba1e67a21e4629a9da"
        },
        {
          "path": "Lib\/Rest",
          "dir": true,
          "file": false,
          "perms": "0777",
          "size": 0,
          "sha1": null
        },
        {
          "path": "Lib\/Rest\/Store.php",
          "dir": false,
          "file": true,
          "perms": "0666",
          "size": 2641,
          "sha1": "7c110e6a2dacdd46567bdadaa00a652e1f8226b7"
        },
        {
          "path": "Lib\/Rest.php",
          "dir": false,
          "file": true,
          "perms": "0666",
          "size": 3854,
          "sha1": "69bff836f5ee0a2baa09a51c77e40c770efc106a"
        },
        {
          "path": "Lib\/Validate",
          "dir": true,
          "file": false,
          "perms": "0777",
          "size": 0,
          "sha1": null
        },
        {
          "path": "Lib\/Validate\/License.php",
          "dir": false,
          "file": true,
          "perms": "0666",
          "size": 2430,
          "sha1": "661d198bc36dd23520e2b48d9c97367fe4a28e05"
        },
        {
          "path": "Lib\/Validate\/Location",
          "dir": true,
          "file": false,
          "perms": "0777",
          "size": 0,
          "sha1": null
        },
        {
          "path": "Lib\/Validate\/Location\/Address.php",
          "dir": false,
          "file": true,
          "perms": "0666",
          "size": 1097,
          "sha1": "be67913e30646e5c7ff34f29446c5695b2592aea"
        },
        {
          "path": "Model",
          "dir": true,
          "file": false,
          "perms": "0777",
          "size": 0,
          "sha1": null
        },
        {
          "path": "Model\/Category.php",
          "dir": false,
          "file": true,
          "perms": "0666",
          "size": 7575,
          "sha1": "c53dd53a6b19fbf4fd910da962d5f51dbc3a291a"
        },
        {
          "path": "Model\/DbTable",
          "dir": true,
          "file": false,
          "perms": "0777",
          "size": 0,
          "sha1": null
        },
        {
          "path": "Model\/DbTable\/Categories.php",
          "dir": false,
          "file": true,
          "perms": "0666",
          "size": 3941,
          "sha1": "ed418208276bc1f9cb74ef7eb319b5d44fdca642"
        },
        {
          "path": "Model\/DbTable\/Locations.php",
          "dir": false,
          "file": true,
          "perms": "0666",
          "size": 451,
          "sha1": "0b8f0bdd73706575b6c085603406b2b7ac785538"
        },
        {
          "path": "Model\/Location.php",
          "dir": false,
          "file": true,
          "perms": "0666",
          "size": 1605,
          "sha1": "27e60234495dfce56ebb72439342733d194cf388"
        },
        {
          "path": "Plugin",
          "dir": true,
          "file": false,
          "perms": "0777",
          "size": 0,
          "sha1": null
        },
        {
          "path": "Plugin\/Core.php",
          "dir": false,
          "file": true,
          "perms": "0666",
          "size": 943,
          "sha1": "918f3f797573d77fd5719de7a03ed8468b0a8a73"
        },
        {
          "path": "Plugin\/Task",
          "dir": true,
          "file": false,
          "perms": "0777",
          "size": 0,
          "sha1": null
        },
        {
          "path": "Plugin\/Task\/Optimize.php",
          "dir": false,
          "file": true,
          "perms": "0666",
          "size": 789,
          "sha1": "0e3d1f5791fdad50347c60a59025d633b5ee3ace"
        },
        {
          "path": "settings",
          "dir": true,
          "file": false,
          "perms": "0777",
          "size": 8192,
          "sha1": null
        },
        {
          "path": "settings\/install.php",
          "dir": false,
          "file": true,
          "perms": "0666",
          "size": 398,
          "sha1": "af6651395c79c141b67037f89862543937774557"
        },
        {
          "path": "settings\/manifest.php",
          "dir": false,
          "file": true,
          "perms": "0666",
          "size": 2692,
          "sha1": "f714e3495324c9126d3cf84c4521da373185d052"
        },
        {
          "path": "settings\/my-upgrade-4.0.0-4.0.2.sql",
          "dir": false,
          "file": true,
          "perms": "0666",
          "size": 311,
          "sha1": "c234fa490b86d7dedede8b146bdcf6888513788e"
        },
        {
          "path": "settings\/my-upgrade-4.0.2-4.0.3.sql",
          "dir": false,
          "file": true,
          "perms": "0666",
          "size": 1175,
          "sha1": "a27d3803cf4400a902f330c9bc43c232b94c565a"
        },
        {
          "path": "settings\/my-upgrade-4.0.3-4.0.4.sql",
          "dir": false,
          "file": true,
          "perms": "0666",
          "size": 0,
          "sha1": "da39a3ee5e6b4b0d3255bfef95601890afd80709"
        },
        {
          "path": "settings\/my-upgrade-4.0.4-4.0.5.sql",
          "dir": false,
          "file": true,
          "perms": "0666",
          "size": 0,
          "sha1": "da39a3ee5e6b4b0d3255bfef95601890afd80709"
        },
        {
          "path": "settings\/my-upgrade-4.0.5-4.0.6.sql",
          "dir": false,
          "file": true,
          "perms": "0666",
          "size": 420,
          "sha1": "3d1e4e6e57df2d0c646528ce7b6f1dfacc121a0c"
        },
        {
          "path": "settings\/my-upgrade-4.0.6-4.0.7.sql",
          "dir": false,
          "file": true,
          "perms": "0666",
          "size": 76,
          "sha1": "4753a1d3b63984423da0adb4298ed48217e1b6b3"
        },
        {
          "path": "settings\/my-upgrade-4.0.7-4.0.8.sql",
          "dir": false,
          "file": true,
          "perms": "0666",
          "size": 100,
          "sha1": "b1364f66f03b85ce703c47f8e37d7bf63776f30a"
        },
        {
          "path": "settings\/my-upgrade-4.0.8-4.0.9.sql",
          "dir": false,
          "file": true,
          "perms": "0666",
          "size": 0,
          "sha1": "da39a3ee5e6b4b0d3255bfef95601890afd80709"
        },
        {
          "path": "settings\/my-upgrade-4.0.9-4.1.0.sql",
          "dir": false,
          "file": true,
          "perms": "0666",
          "size": 173,
          "sha1": "084d4f916b1416ddbea670767bcb266c53e43e0a"
        },
        {
          "path": "settings\/my-upgrade-4.1.0-4.1.1.sql",
          "dir": false,
          "file": true,
          "perms": "0666",
          "size": 0,
          "sha1": "da39a3ee5e6b4b0d3255bfef95601890afd80709"
        },
        {
          "path": "settings\/my-upgrade-4.1.1-4.1.2.sql",
          "dir": false,
          "file": true,
          "perms": "0666",
          "size": 0,
          "sha1": "da39a3ee5e6b4b0d3255bfef95601890afd80709"
        },
        {
          "path": "settings\/my-upgrade-4.1.2-4.1.3.sql",
          "dir": false,
          "file": true,
          "perms": "0666",
          "size": 0,
          "sha1": "da39a3ee5e6b4b0d3255bfef95601890afd80709"
        },
        {
          "path": "settings\/my-upgrade-4.1.3-4.1.4.sql",
          "dir": false,
          "file": true,
          "perms": "0666",
          "size": 0,
          "sha1": "da39a3ee5e6b4b0d3255bfef95601890afd80709"
        },
        {
          "path": "settings\/my-upgrade-4.1.4-4.1.5.sql",
          "dir": false,
          "file": true,
          "perms": "0666",
          "size": 0,
          "sha1": "da39a3ee5e6b4b0d3255bfef95601890afd80709"
        },
        {
          "path": "settings\/my.sql",
          "dir": false,
          "file": true,
          "perms": "0666",
          "size": 3347,
          "sha1": "d132f6261f6edfd1cc9dcbe8c23261b23d981e16"
        },
        {
          "path": "View",
          "dir": true,
          "file": false,
          "perms": "0777",
          "size": 0,
          "sha1": null
        },
        {
          "path": "View\/Helper",
          "dir": true,
          "file": false,
          "perms": "0777",
          "size": 0,
          "sha1": null
        },
        {
          "path": "View\/Helper\/Abstract.php",
          "dir": false,
          "file": true,
          "perms": "0666",
          "size": 401,
          "sha1": "e0ae58ba6eaf72d3482080f08c42b59464df1caf"
        },
        {
          "path": "View\/Helper\/FormDoubleSelect.php",
          "dir": false,
          "file": true,
          "perms": "0666",
          "size": 3510,
          "sha1": "0a211721c52c295e1c45a3c22af319e61e2adf8d"
        },
        {
          "path": "View\/Helper\/Radcodes",
          "dir": true,
          "file": false,
          "perms": "0777",
          "size": 0,
          "sha1": null
        },
        {
          "path": "View\/Helper\/Radcodes\/Map.php",
          "dir": false,
          "file": true,
          "perms": "0666",
          "size": 5707,
          "sha1": "c071f6e67757096a4c887f7aa0364602a0a8a8bb"
        },
        {
          "path": "View\/Helper\/Radcodes\/Text.php",
          "dir": false,
          "file": true,
          "perms": "0666",
          "size": 1167,
          "sha1": "6ce229f733355ddaed897bfc40f8d066515c766e"
        },
        {
          "path": "View\/Helper\/Radcodes.php",
          "dir": false,
          "file": true,
          "perms": "0666",
          "size": 1338,
          "sha1": "cc6a4abadbb229484077845f51739ab01a1a1e42"
        },
        {
          "path": "views",
          "dir": true,
          "file": false,
          "perms": "0777",
          "size": 0,
          "sha1": null
        },
        {
          "path": "views\/scripts",
          "dir": true,
          "file": false,
          "perms": "0777",
          "size": 4096,
          "sha1": null
        },
        {
          "path": "views\/scripts\/admin-categories",
          "dir": true,
          "file": false,
          "perms": "0777",
          "size": 4096,
          "sha1": null
        },
        {
          "path": "views\/scripts\/admin-categories\/add.tpl",
          "dir": false,
          "file": true,
          "perms": "0666",
          "size": 373,
          "sha1": "6e3bfdcee213055177531ee508f14f3e2e69a808"
        },
        {
          "path": "views\/scripts\/admin-categories\/delete.tpl",
          "dir": false,
          "file": true,
          "perms": "0666",
          "size": 1158,
          "sha1": "b524bcc1d30b013079956812adb94b00c4f254da"
        },
        {
          "path": "views\/scripts\/admin-categories\/edit.tpl",
          "dir": false,
          "file": true,
          "perms": "0666",
          "size": 373,
          "sha1": "6e3bfdcee213055177531ee508f14f3e2e69a808"
        },
        {
          "path": "views\/scripts\/admin-categories\/icon.tpl",
          "dir": false,
          "file": true,
          "perms": "0666",
          "size": 1714,
          "sha1": "6d1d48d0d4c843cd091b43246dc9af9011fe8a70"
        },
        {
          "path": "views\/scripts\/admin-categories\/index.tpl",
          "dir": false,
          "file": true,
          "perms": "0666",
          "size": 1839,
          "sha1": "2a367ae7786bc7533baef2e9a50a1fa3ec14150d"
        },
        {
          "path": "views\/scripts\/admin-categories\/move.tpl",
          "dir": false,
          "file": true,
          "perms": "0666",
          "size": 373,
          "sha1": "6e3bfdcee213055177531ee508f14f3e2e69a808"
        },
        {
          "path": "views\/scripts\/admin-categories\/profile-type.tpl",
          "dir": false,
          "file": true,
          "perms": "0666",
          "size": 373,
          "sha1": "6e3bfdcee213055177531ee508f14f3e2e69a808"
        },
        {
          "path": "views\/scripts\/admin-categories\/profiles.tpl",
          "dir": false,
          "file": true,
          "perms": "0666",
          "size": 373,
          "sha1": "6e3bfdcee213055177531ee508f14f3e2e69a808"
        },
        {
          "path": "views\/scripts\/admin-categories\/_jsSort.tpl",
          "dir": false,
          "file": true,
          "perms": "0666",
          "size": 1594,
          "sha1": "966a177c60b2b0d5cd26d94127872e9eeca9f29a"
        },
        {
          "path": "views\/scripts\/admin-categories\/_list.tpl",
          "dir": false,
          "file": true,
          "perms": "0666",
          "size": 1495,
          "sha1": "8bb10b65d7439422858d452331d41cb23dc57d13"
        },
        {
          "path": "views\/scripts\/admin-categories\/_list_item_category.tpl",
          "dir": false,
          "file": true,
          "perms": "0666",
          "size": 2602,
          "sha1": "603afd05c610ff150f0a0c3dda6e870a5eb14648"
        },
        {
          "path": "views\/scripts\/admin-categories\/_options.tpl",
          "dir": false,
          "file": true,
          "perms": "0666",
          "size": 742,
          "sha1": "50ce0ec1d7be591c059beba8caee23118885e4fa"
        },
        {
          "path": "views\/scripts\/admin-index",
          "dir": true,
          "file": false,
          "perms": "0777",
          "size": 0,
          "sha1": null
        },
        {
          "path": "views\/scripts\/admin-index\/index.tpl",
          "dir": false,
          "file": true,
          "perms": "0666",
          "size": 1039,
          "sha1": "ad36a693b867ccf168af6d71611799dba6ba96e8"
        },
        {
          "path": "views\/scripts\/admin-plugins",
          "dir": true,
          "file": false,
          "perms": "0777",
          "size": 0,
          "sha1": null
        },
        {
          "path": "views\/scripts\/admin-plugins\/index.tpl",
          "dir": false,
          "file": true,
          "perms": "0666",
          "size": 3142,
          "sha1": "65f95818141d32495779fd3130de943e63132b5c"
        },
        {
          "path": "views\/scripts\/admin-settings",
          "dir": true,
          "file": false,
          "perms": "0777",
          "size": 0,
          "sha1": null
        },
        {
          "path": "views\/scripts\/admin-settings\/index.tpl",
          "dir": false,
          "file": true,
          "perms": "0666",
          "size": 827,
          "sha1": "5479e24e89647504e2b3a2bc0185bd0509e71090"
        },
        {
          "path": "views\/scripts\/admin-toolkits",
          "dir": true,
          "file": false,
          "perms": "0777",
          "size": 4096,
          "sha1": null
        },
        {
          "path": "views\/scripts\/admin-toolkits\/delete-page.tpl",
          "dir": false,
          "file": true,
          "perms": "0666",
          "size": 838,
          "sha1": "750204b4e2baed70fc604114bb9f2aab596aae51"
        },
        {
          "path": "views\/scripts\/admin-toolkits\/index.tpl",
          "dir": false,
          "file": true,
          "perms": "0666",
          "size": 1123,
          "sha1": "4a4ab2934d72b8be6a305c081ca24f7788e6af11"
        },
        {
          "path": "views\/scripts\/admin-toolkits\/query.tpl",
          "dir": false,
          "file": true,
          "perms": "0666",
          "size": 770,
          "sha1": "27500c1c9abff62eebcc742c8e268c88c6da5d6b"
        },
        {
          "path": "views\/scripts\/admin-toolkits\/run-installer-function.tpl",
          "dir": false,
          "file": true,
          "perms": "0666",
          "size": 838,
          "sha1": "750204b4e2baed70fc604114bb9f2aab596aae51"
        },
        {
          "path": "views\/scripts\/admin-toolkits\/_quick_menu.tpl",
          "dir": false,
          "file": true,
          "perms": "0666",
          "size": 702,
          "sha1": "4100b6e1116b8206db97410c8e2bd1cb5a11d19b"
        },
        {
          "path": "views\/scripts\/index",
          "dir": true,
          "file": false,
          "perms": "0777",
          "size": 0,
          "sha1": null
        },
        {
          "path": "views\/scripts\/index\/license.tpl",
          "dir": false,
          "file": true,
          "perms": "0666",
          "size": 544,
          "sha1": "08ed1d0a01167afc81ff64e46cf0c18a74ba777f"
        },
        {
          "path": "views\/scripts\/index\/updates.tpl",
          "dir": false,
          "file": true,
          "perms": "0666",
          "size": 667,
          "sha1": "b3e85b47a221ecab46048f40af74be7d772c4225"
        },
        {
          "path": "views\/scripts\/index\/upload-photo.tpl",
          "dir": false,
          "file": true,
          "perms": "0666",
          "size": 1198,
          "sha1": "a4149f0e6222fdd773443e6b2228030040706da8"
        },
        {
          "path": "views\/scripts\/shared",
          "dir": true,
          "file": false,
          "perms": "0777",
          "size": 0,
          "sha1": null
        },
        {
          "path": "views\/scripts\/shared\/_categories.tpl",
          "dir": false,
          "file": true,
          "perms": "0666",
          "size": 4620,
          "sha1": "80d634cbcf91f9a110c1161223ef07f8bbfcef1a"
        },
        {
          "path": "views\/scripts\/_map_infoWindow.tpl",
          "dir": false,
          "file": true,
          "perms": "0666",
          "size": 1747,
          "sha1": "8e9e977d55b5237cb1eb7bba2fb1be2422cfbbf5"
        },
        {
          "path": "views\/scripts\/_map_jsDraggable.tpl",
          "dir": false,
          "file": true,
          "perms": "0666",
          "size": 653,
          "sha1": "9aa3e66a9ccdcbc4923826a49992cbc6aacc60b1"
        },
        {
          "path": "Widget",
          "dir": true,
          "file": false,
          "perms": "0777",
          "size": 0,
          "sha1": null
        },
        {
          "path": "Widget\/Categories",
          "dir": true,
          "file": false,
          "perms": "0777",
          "size": 0,
          "sha1": null
        },
        {
          "path": "Widget\/Categories\/Abstract.php",
          "dir": false,
          "file": true,
          "perms": "0666",
          "size": 1469,
          "sha1": "b677799785c5a54e18ccb3633c5e1f63f8a2d867"
        },
        {
          "path": "widgets",
          "dir": true,
          "file": false,
          "perms": "0777",
          "size": 0,
          "sha1": null
        },
        {
          "path": "widgets\/admin-message",
          "dir": true,
          "file": false,
          "perms": "0777",
          "size": 0,
          "sha1": null
        },
        {
          "path": "widgets\/admin-message\/Controller.php",
          "dir": false,
          "file": true,
          "perms": "0666",
          "size": 557,
          "sha1": "7ec76a2bc687225ff4af7ce8bbe10a7df0e42625"
        },
        {
          "path": "widgets\/admin-message\/index.tpl",
          "dir": false,
          "file": true,
          "perms": "0666",
          "size": 355,
          "sha1": "438635782a8d0845391bc201113327b6726eb5de"
        },
        {
          "path": "widgets\/admin-modules",
          "dir": true,
          "file": false,
          "perms": "0777",
          "size": 0,
          "sha1": null
        },
        {
          "path": "widgets\/admin-modules\/Controller.php",
          "dir": false,
          "file": true,
          "perms": "0666",
          "size": 1922,
          "sha1": "3f5d759f0192589ecf1159519ae27005b738411c"
        },
        {
          "path": "widgets\/admin-modules\/index.tpl",
          "dir": false,
          "file": true,
          "perms": "0666",
          "size": 2250,
          "sha1": "58c0810fa62b5f547abe9c824d63e4d6ad297418"
        },
        {
          "path": "widgets\/admin-news",
          "dir": true,
          "file": false,
          "perms": "0777",
          "size": 0,
          "sha1": null
        },
        {
          "path": "widgets\/admin-news\/Controller.php",
          "dir": false,
          "file": true,
          "perms": "0666",
          "size": 1393,
          "sha1": "def956da5fa8f528a26b7cbe19f4c07987fecc13"
        },
        {
          "path": "widgets\/admin-news\/index.tpl",
          "dir": false,
          "file": true,
          "perms": "0666",
          "size": 1940,
          "sha1": "61453360455ff4f55f0a23c5bb1fcf9c0e736064"
        }
      ]
    },
    "application\/languages\/en\/radcodes.csv": {
      "type": "file",
      "path": "application\/languages\/en\/radcodes.csv",
      "structure": {
        "path": "radcodes.csv",
        "dir": false,
        "file": true,
        "perms": "0666",
        "size": 447,
        "sha1": "388a0c2d778b412c9c11ecf7925f39e73cc811fa"
      }
    }
  }
}