{
  "type": "module",
  "name": "property",
  "version": "0.0.1",
  "revision": null,
  "path": "application\/modules\/Property",
  "repository": null,
  "sku": null,
  "date": "Tue, 28 Jan 2020 07:51:36 +0000",
  "title": "property",
  "description": "",
  "thumb": null,
  "developer": null,
  "authors": [
    "Abhisek Jaiswal"
  ],
  "meta": {
    "date": "Tue, 28 Jan 2020 07:51:36 +0000",
    "title": "property",
    "description": "",
    "developer": null,
    "authors": [
      "Abhisek Jaiswal"
    ],
    "changeLog": null
  },
  "actions": [
    "install",
    "upgrade",
    "refresh",
    "enable",
    "disable"
  ],
  "callback": {
    "path": null,
    "class": "Engine_Package_Installer_Module",
    "priority": 100
  },
  "dependencies": null,
  "tests": [
    
  ],
  "permissions": [
    
  ],
  "structure": {
    "application\/modules\/Property": {
      "type": "directory",
      "path": "application\/modules\/Property",
      "structure": [
        {
          "path": "Model",
          "dir": true,
          "file": false,
          "perms": "0755",
          "size": 4096,
          "sha1": null
        },
        {
          "path": "Model\/DbTable",
          "dir": true,
          "file": false,
          "perms": "0755",
          "size": 4096,
          "sha1": null
        },
        {
          "path": "Model\/DbTable\/Issueconversations.php",
          "dir": false,
          "file": true,
          "perms": "0644",
          "size": 162,
          "sha1": "b9d8859c013610c70d87f5dd3893de86d82d4d63"
        },
        {
          "path": "Model\/DbTable\/Issues.09Oct2019php",
          "dir": false,
          "file": true,
          "perms": "0644",
          "size": 150,
          "sha1": "98cdce7fb1ca4466a5a34eae0a6946b75c070da9"
        },
        {
          "path": "Model\/DbTable\/Members.php",
          "dir": false,
          "file": true,
          "perms": "0644",
          "size": 152,
          "sha1": "19004ca3b9359cd5cfc7d657fa9b2e85a36955fe"
        },
        {
          "path": "Model\/DbTable\/Properties.php",
          "dir": false,
          "file": true,
          "perms": "0644",
          "size": 620,
          "sha1": "6e896c7166356ddb12593c5d67572c8eb4deb203"
        },
        {
          "path": "Model\/DbTable\/Issues.php",
          "dir": false,
          "file": true,
          "perms": "0644",
          "size": 847,
          "sha1": "40e8af4cc18ad6a19ead42d935c6dee8082b6195"
        },
        {
          "path": "Model\/Issueconversation.php",
          "dir": false,
          "file": true,
          "perms": "0644",
          "size": 94,
          "sha1": "21e90d4182becf14122a2524412c6a333f5f65f8"
        },
        {
          "path": "Model\/Property.php",
          "dir": false,
          "file": true,
          "perms": "0644",
          "size": 4457,
          "sha1": "36095755d9705b06997742db085c81fec7fe849b"
        },
        {
          "path": "Model\/Member.php",
          "dir": false,
          "file": true,
          "perms": "0644",
          "size": 86,
          "sha1": "d9a387c7d4eee88bf997c7c336d240b263b85307"
        },
        {
          "path": "Model\/Issue.24Oct2019php",
          "dir": false,
          "file": true,
          "perms": "0644",
          "size": 3068,
          "sha1": "3d467812ca7a73863a2c7bfd99d8fa224b5ed9b1"
        },
        {
          "path": "Model\/Issue.php",
          "dir": false,
          "file": true,
          "perms": "0644",
          "size": 2284,
          "sha1": "9a95c7e5806f84d1eeb5c1ffbd80b5a826f86994"
        },
        {
          "path": "views",
          "dir": true,
          "file": false,
          "perms": "0755",
          "size": 4096,
          "sha1": null
        },
        {
          "path": "views\/scripts",
          "dir": true,
          "file": false,
          "perms": "0755",
          "size": 4096,
          "sha1": null
        },
        {
          "path": "views\/scripts\/member",
          "dir": true,
          "file": false,
          "perms": "0755",
          "size": 4096,
          "sha1": null
        },
        {
          "path": "views\/scripts\/member\/add.tpl",
          "dir": false,
          "file": true,
          "perms": "0644",
          "size": 3916,
          "sha1": "51e9247958c6183b118c0df1c25e758d8fa8e53a"
        },
        {
          "path": "views\/scripts\/index",
          "dir": true,
          "file": false,
          "perms": "0755",
          "size": 4096,
          "sha1": null
        },
        {
          "path": "views\/scripts\/index\/upload.tpl",
          "dir": false,
          "file": true,
          "perms": "0644",
          "size": 41,
          "sha1": "ad87d1dd0a294ba9c20b90ffe6c17ec04e193420"
        },
        {
          "path": "views\/scripts\/index\/index.30Oct2019tpl",
          "dir": false,
          "file": true,
          "perms": "0644",
          "size": 4171,
          "sha1": "ddbd4a6d16ea4e66abe26903651ea96bb1c4b2e0"
        },
        {
          "path": "views\/scripts\/index\/edit.tpl",
          "dir": false,
          "file": true,
          "perms": "0644",
          "size": 4459,
          "sha1": "0a34027b0678a73a0b00ae08fa653ced6d429f39"
        },
        {
          "path": "views\/scripts\/index\/delete.tpl",
          "dir": false,
          "file": true,
          "perms": "0644",
          "size": 38,
          "sha1": "332eb55505dc5af2e01db20a4478a2b90f104d56"
        },
        {
          "path": "views\/scripts\/index\/create.tpl",
          "dir": false,
          "file": true,
          "perms": "0644",
          "size": 3916,
          "sha1": "2c4ddc37335c992327b074b3d6475fe746cf3d8a"
        },
        {
          "path": "views\/scripts\/index\/index.tpl",
          "dir": false,
          "file": true,
          "perms": "0644",
          "size": 4422,
          "sha1": "ec2f5966edc3929fe12ceb27241a928aad09789f"
        },
        {
          "path": "views\/scripts\/index\/view.30Oct2019tpl",
          "dir": false,
          "file": true,
          "perms": "0644",
          "size": 1989,
          "sha1": "65c6bcf266f7648d671538691f5cae8e2670168b"
        },
        {
          "path": "views\/scripts\/index\/index.22Nov2019tpl",
          "dir": false,
          "file": true,
          "perms": "0644",
          "size": 4311,
          "sha1": "5a6bcfd211566424dab8da9dbf0b544ec5d04bb7"
        },
        {
          "path": "views\/scripts\/index\/view.tpl",
          "dir": false,
          "file": true,
          "perms": "0644",
          "size": 1989,
          "sha1": "a658edc735c1a5c7f35504f9e411850e30ebd707"
        },
        {
          "path": "views\/scripts\/issue",
          "dir": true,
          "file": false,
          "perms": "0755",
          "size": 4096,
          "sha1": null
        },
        {
          "path": "views\/scripts\/issue\/index.30Oct2019tpl",
          "dir": false,
          "file": true,
          "perms": "0644",
          "size": 4619,
          "sha1": "afe5a936e3844cb5d997223c883950f46755e616"
        },
        {
          "path": "views\/scripts\/issue\/edit.tpl",
          "dir": false,
          "file": true,
          "perms": "0644",
          "size": 58,
          "sha1": "a99b9692941ee5e106950babae2b5ac94cbfdd65"
        },
        {
          "path": "views\/scripts\/issue\/delete.tpl",
          "dir": false,
          "file": true,
          "perms": "0644",
          "size": 58,
          "sha1": "a99b9692941ee5e106950babae2b5ac94cbfdd65"
        },
        {
          "path": "views\/scripts\/issue\/state.tpl",
          "dir": false,
          "file": true,
          "perms": "0644",
          "size": 40,
          "sha1": "e6510171c4ac79e0cb2ecbf0e1d800de52504110"
        },
        {
          "path": "views\/scripts\/issue\/create.tpl",
          "dir": false,
          "file": true,
          "perms": "0644",
          "size": 59,
          "sha1": "849e4806d8d531fa6397b63b3552bc928259bc58"
        },
        {
          "path": "views\/scripts\/issue\/index.tpl",
          "dir": false,
          "file": true,
          "perms": "0644",
          "size": 4673,
          "sha1": "87dc7d4562284be92397552777c2d22f08b43858"
        },
        {
          "path": "views\/scripts\/issue\/list.tpl",
          "dir": false,
          "file": true,
          "perms": "0644",
          "size": 3873,
          "sha1": "20d73de2dc86fe8b820a4e390f755792db5761e0"
        },
        {
          "path": "views\/scripts\/issue\/view.30Oct2019tpl",
          "dir": false,
          "file": true,
          "perms": "0644",
          "size": 4416,
          "sha1": "5e0e3a2997499b71ff39602b67a993e19f24c37f"
        },
        {
          "path": "views\/scripts\/issue\/allissue.tpl",
          "dir": false,
          "file": true,
          "perms": "0644",
          "size": 2629,
          "sha1": "61d2fc7ce9eac355b0a998862cc8b75b3ab22398"
        },
        {
          "path": "views\/scripts\/issue\/view.tpl",
          "dir": false,
          "file": true,
          "perms": "0644",
          "size": 4416,
          "sha1": "732dbc8fd3f432d8234317cb3ffee9572757eb60"
        },
        {
          "path": "views\/scripts\/admin-manage",
          "dir": true,
          "file": false,
          "perms": "0755",
          "size": 4096,
          "sha1": null
        },
        {
          "path": "views\/scripts\/admin-manage\/create.tpl",
          "dir": false,
          "file": true,
          "perms": "0644",
          "size": 42,
          "sha1": "f6871288a08fc89d7859a918336301337d21085a"
        },
        {
          "path": "Api",
          "dir": true,
          "file": false,
          "perms": "0755",
          "size": 4096,
          "sha1": null
        },
        {
          "path": "Api\/Core.php",
          "dir": false,
          "file": true,
          "perms": "0644",
          "size": 1489,
          "sha1": "8816389afb7f6291f8f772f093ec6f1004b4ab74"
        },
        {
          "path": "Api\/Core.12Oct2019php",
          "dir": false,
          "file": true,
          "perms": "0644",
          "size": 964,
          "sha1": "da99ca00bef5bd98e69f7394d46e3bd724254c3f"
        },
        {
          "path": "Api\/Core.17Oct2019php",
          "dir": false,
          "file": true,
          "perms": "0644",
          "size": 1241,
          "sha1": "428b300d3f11d279b15983e71ac3c1b0b0cb7b6c"
        },
        {
          "path": "settings",
          "dir": true,
          "file": false,
          "perms": "0755",
          "size": 4096,
          "sha1": null
        },
        {
          "path": "settings\/content.php",
          "dir": false,
          "file": true,
          "perms": "0644",
          "size": 1788,
          "sha1": "115f560d51b64a0ab0ce34b3b88dcad1e6e9d020"
        },
        {
          "path": "settings\/manifest.24Oct2019php",
          "dir": false,
          "file": true,
          "perms": "0644",
          "size": 5227,
          "sha1": "60597b9df46195373094f24a24404261fd1d2630"
        },
        {
          "path": "settings\/manifest.16Sep2019php",
          "dir": false,
          "file": true,
          "perms": "0644",
          "size": 804,
          "sha1": "0ee82f2a468885d2c419ff159a7b87a5683a4201"
        },
        {
          "path": "settings\/content.14Oct2019php",
          "dir": false,
          "file": true,
          "perms": "0644",
          "size": 1158,
          "sha1": "08c82364e2bc9fe78838bbb0abc4a0218a93a1b9"
        },
        {
          "path": "settings\/manifest.---php",
          "dir": false,
          "file": true,
          "perms": "0644",
          "size": 1365,
          "sha1": "22fa5586b212c642b8d47c2d510191196b44d5d5"
        },
        {
          "path": "settings\/manifest.04Oct2019php",
          "dir": false,
          "file": true,
          "perms": "0644",
          "size": 2768,
          "sha1": "610dfb1231035bbfb6db0d6ee8c8b535567068d4"
        },
        {
          "path": "settings\/manifest.php",
          "dir": false,
          "file": true,
          "perms": "0644",
          "size": 5231,
          "sha1": "44e41e30f6011ca2fe678b2646e92b9bcbc886ce"
        },
        {
          "path": "settings\/content.02Oct2019php",
          "dir": false,
          "file": true,
          "perms": "0644",
          "size": 277,
          "sha1": "3e0182905e1f266c264688826838a65225284ece"
        },
        {
          "path": "settings\/manifest.18Oct2019php",
          "dir": false,
          "file": true,
          "perms": "0644",
          "size": 3062,
          "sha1": "d7e1ce0a6f594b2e1866ee5b2e819fd10889d3e3"
        },
        {
          "path": "settings\/content.23Oct2019php",
          "dir": false,
          "file": true,
          "perms": "0644",
          "size": 1360,
          "sha1": "70c36f9bc784316ddc6b6e64eec00cbe6109a0dd"
        },
        {
          "path": "settings\/manifest.21Oct2019php",
          "dir": false,
          "file": true,
          "perms": "0644",
          "size": 4838,
          "sha1": "1e2c139f6a7eed2f07992c1bd590673c033f802d"
        },
        {
          "path": "settings\/manifest.03Oct2019php",
          "dir": false,
          "file": true,
          "perms": "0644",
          "size": 1849,
          "sha1": "4101d83a3ea0f9ff678514bc67d238e9a9e81bda"
        },
        {
          "path": "settings\/content.11Oct2019php",
          "dir": false,
          "file": true,
          "perms": "0644",
          "size": 510,
          "sha1": "c26a456baf48cd35456dbbddebc347f4823189dc"
        },
        {
          "path": "settings\/my-install.sql",
          "dir": false,
          "file": true,
          "perms": "0644",
          "size": 164,
          "sha1": "965ba7e7be0a26c307987a4bf68e0975f93d4461"
        },
        {
          "path": "Plugin",
          "dir": true,
          "file": false,
          "perms": "0755",
          "size": 4096,
          "sha1": null
        },
        {
          "path": "Plugin\/Menus.19Oct2019php",
          "dir": false,
          "file": true,
          "perms": "0644",
          "size": 3477,
          "sha1": "db177acdeec522d40b76ff7e03a7e9e3871274b7"
        },
        {
          "path": "Plugin\/Menus.php",
          "dir": false,
          "file": true,
          "perms": "0644",
          "size": 3953,
          "sha1": "515bcc2bd660905c845be519912547b9c2c370e1"
        },
        {
          "path": "Plugin\/Menus.17Oct2019php",
          "dir": false,
          "file": true,
          "perms": "0644",
          "size": 1996,
          "sha1": "3ac0a5b1d2866af31ba9e23c2f8de777b8ec735d"
        },
        {
          "path": "Plugin\/Menus.18Oct2019php",
          "dir": false,
          "file": true,
          "perms": "0644",
          "size": 3722,
          "sha1": "fb97dbfc9d90cfd6679900312cf1e5fb1727c8f7"
        },
        {
          "path": "Plugin\/Menus.01Oct2019php",
          "dir": false,
          "file": true,
          "perms": "0644",
          "size": 950,
          "sha1": "07b2026673b449131fb6fa46e143119ef36b2fc2"
        },
        {
          "path": "widgets",
          "dir": true,
          "file": false,
          "perms": "0755",
          "size": 4096,
          "sha1": null
        },
        {
          "path": "widgets\/photo-mobile",
          "dir": true,
          "file": false,
          "perms": "0755",
          "size": 4096,
          "sha1": null
        },
        {
          "path": "widgets\/photo-mobile\/index.tpl",
          "dir": false,
          "file": true,
          "perms": "0644",
          "size": 51,
          "sha1": "09138160a1e56489a062a421447d1e2e46e1049c"
        },
        {
          "path": "widgets\/photo-mobile\/Controller.php",
          "dir": false,
          "file": true,
          "perms": "0644",
          "size": 712,
          "sha1": "5da254a321bbc95bc23e077505bb8a9e5fc7e843"
        },
        {
          "path": "widgets\/property-issues",
          "dir": true,
          "file": false,
          "perms": "0755",
          "size": 4096,
          "sha1": null
        },
        {
          "path": "widgets\/property-issues\/index.18Oct2019tpl",
          "dir": false,
          "file": true,
          "perms": "0644",
          "size": 1919,
          "sha1": "358d6ecd178fa348cc754ea88c4390d02ba24209"
        },
        {
          "path": "widgets\/property-issues\/index.tpl",
          "dir": false,
          "file": true,
          "perms": "0644",
          "size": 1960,
          "sha1": "85d966b7e71adbcba8daf208bf6b86dc95569448"
        },
        {
          "path": "widgets\/property-issues\/index.17Oct2019tpl",
          "dir": false,
          "file": true,
          "perms": "0644",
          "size": 1575,
          "sha1": "fc9a21e9ed9c96683ccd1aa6d96f05c0feb0dba5"
        },
        {
          "path": "widgets\/property-issues\/Controller.17Oct2019php",
          "dir": false,
          "file": true,
          "perms": "0644",
          "size": 691,
          "sha1": "4f00e7da5bf872d49a2409a06d602eaa8ede192e"
        },
        {
          "path": "widgets\/property-issues\/Controller.php",
          "dir": false,
          "file": true,
          "perms": "0644",
          "size": 889,
          "sha1": "bca73682faf1e3f74d8723188a22728b06958dcc"
        },
        {
          "path": "widgets\/property-issues\/index.19Oct2019tpl",
          "dir": false,
          "file": true,
          "perms": "0644",
          "size": 1933,
          "sha1": "6d4e819203ab9746e044cfcdf2ab0b7dfb596838"
        },
        {
          "path": "widgets\/property-links",
          "dir": true,
          "file": false,
          "perms": "0755",
          "size": 4096,
          "sha1": null
        },
        {
          "path": "widgets\/property-links\/index.tpl",
          "dir": false,
          "file": true,
          "perms": "0644",
          "size": 220,
          "sha1": "3db49f18f0bd2e345be7e65ef9cb1ab3e0eb9080"
        },
        {
          "path": "widgets\/property-links\/Controller.php",
          "dir": false,
          "file": true,
          "perms": "0644",
          "size": 966,
          "sha1": "9d7f5d19fbc0a8199ed95f407926deabbee3d14b"
        },
        {
          "path": "widgets\/browse-menu",
          "dir": true,
          "file": false,
          "perms": "0755",
          "size": 4096,
          "sha1": null
        },
        {
          "path": "widgets\/browse-menu\/index.tpl",
          "dir": false,
          "file": true,
          "perms": "0644",
          "size": 377,
          "sha1": "75c72af67db4c20a4ce9b3a961e8686f0aa0eebc"
        },
        {
          "path": "widgets\/browse-menu\/Controller.php",
          "dir": false,
          "file": true,
          "perms": "0644",
          "size": 887,
          "sha1": "3d50c720091e309d4cf3544e1763092bc34c4e91"
        },
        {
          "path": "widgets\/gutter-photo",
          "dir": true,
          "file": false,
          "perms": "0755",
          "size": 4096,
          "sha1": null
        },
        {
          "path": "widgets\/gutter-photo\/index.tpl",
          "dir": false,
          "file": true,
          "perms": "0644",
          "size": 51,
          "sha1": "09138160a1e56489a062a421447d1e2e46e1049c"
        },
        {
          "path": "widgets\/gutter-photo\/Controller.php",
          "dir": false,
          "file": true,
          "perms": "0644",
          "size": 837,
          "sha1": "200aa0cfb67ccd2774be63fc801dc80222b1ae4a"
        },
        {
          "path": "widgets\/links-mobile",
          "dir": true,
          "file": false,
          "perms": "0755",
          "size": 4096,
          "sha1": null
        },
        {
          "path": "widgets\/links-mobile\/index.tpl",
          "dir": false,
          "file": true,
          "perms": "0644",
          "size": 220,
          "sha1": "3db49f18f0bd2e345be7e65ef9cb1ab3e0eb9080"
        },
        {
          "path": "widgets\/links-mobile\/Controller.php",
          "dir": false,
          "file": true,
          "perms": "0644",
          "size": 396,
          "sha1": "3e4865331352e803d90a3f3e34b2b3a6186d7d82"
        },
        {
          "path": "widgets\/property-members",
          "dir": true,
          "file": false,
          "perms": "0755",
          "size": 4096,
          "sha1": null
        },
        {
          "path": "widgets\/property-members\/index.24Oct2019tpl",
          "dir": false,
          "file": true,
          "perms": "0644",
          "size": 1700,
          "sha1": "ce98bfd0193c047c27beb46a81092df748afe1a9"
        },
        {
          "path": "widgets\/property-members\/index.18Oct2019tpl",
          "dir": false,
          "file": true,
          "perms": "0644",
          "size": 1440,
          "sha1": "788cdad2988f10a25abefceec789b360ab7f85e6"
        },
        {
          "path": "widgets\/property-members\/index.tpl",
          "dir": false,
          "file": true,
          "perms": "0644",
          "size": 2093,
          "sha1": "badb10330046db3e509f1885224b868d644c75cb"
        },
        {
          "path": "widgets\/property-members\/index.17Oct2019tpl",
          "dir": false,
          "file": true,
          "perms": "0644",
          "size": 1624,
          "sha1": "030933bb37d8d74b4762d5061f14c40ccaaed58c"
        },
        {
          "path": "widgets\/property-members\/Controller.17Oct2019php",
          "dir": false,
          "file": true,
          "perms": "0644",
          "size": 626,
          "sha1": "36202ebd9b4fed7c606f8d9afe1b5806497b2dd4"
        },
        {
          "path": "widgets\/property-members\/Controller.php",
          "dir": false,
          "file": true,
          "perms": "0644",
          "size": 905,
          "sha1": "6d14acd758fd0bc31157983b87055d2bd6a171ed"
        },
        {
          "path": "widgets\/property-members\/Controller.19Oct2019php",
          "dir": false,
          "file": true,
          "perms": "0644",
          "size": 864,
          "sha1": "8e4e146fb63180c33afa4ac6b4a1942c16044c1e"
        },
        {
          "path": "widgets\/members-property",
          "dir": true,
          "file": false,
          "perms": "0755",
          "size": 4096,
          "sha1": null
        },
        {
          "path": "widgets\/members-property\/index.24Oct2019tpl",
          "dir": false,
          "file": true,
          "perms": "0644",
          "size": 2807,
          "sha1": "06b1b40458e1fd495851feff66b19475a88da2c3"
        },
        {
          "path": "widgets\/members-property\/index.tpl",
          "dir": false,
          "file": true,
          "perms": "0644",
          "size": 1276,
          "sha1": "8f66cc0fa9c007c6ca8ce48561d9cbd2fc9b5dd4"
        },
        {
          "path": "widgets\/members-property\/Controller.php",
          "dir": false,
          "file": true,
          "perms": "0644",
          "size": 1324,
          "sha1": "b64e03934587d3126d38e28fc075e943bba20501"
        },
        {
          "path": "widgets\/members-property\/Controller.19Oct2019php",
          "dir": false,
          "file": true,
          "perms": "0644",
          "size": 1282,
          "sha1": "3f1cdaf40b7ccfc152d99b11f83a26524ba1cda1"
        },
        {
          "path": "widgets\/members-property\/index.15Oct2019tpl",
          "dir": false,
          "file": true,
          "perms": "0644",
          "size": 2197,
          "sha1": "94d1506cb42a998fd9f87e435b8e78450372a22f"
        },
        {
          "path": "controllers",
          "dir": true,
          "file": false,
          "perms": "0755",
          "size": 4096,
          "sha1": null
        },
        {
          "path": "controllers\/IndexController.04Oct2019php",
          "dir": false,
          "file": true,
          "perms": "0644",
          "size": 7684,
          "sha1": "6195de9bc883768d36e7302c058f4d6b3fadbbf4"
        },
        {
          "path": "controllers\/IssueController.php",
          "dir": false,
          "file": true,
          "perms": "0644",
          "size": 16282,
          "sha1": "588dd1455585aae075a1c7325b4f4e22c0438d1d"
        },
        {
          "path": "controllers\/IndexController.11oct2019php",
          "dir": false,
          "file": true,
          "perms": "0644",
          "size": 13131,
          "sha1": "e9b61a95cad5024e9192c83f7d5858c077c6cab1"
        },
        {
          "path": "controllers\/IndexController.php",
          "dir": false,
          "file": true,
          "perms": "0644",
          "size": 17000,
          "sha1": "ebd7b26c2bdd144094a3d2e0476cb24b921a60e3"
        },
        {
          "path": "controllers\/IssueController.01Oct2019php",
          "dir": false,
          "file": true,
          "perms": "0644",
          "size": 5934,
          "sha1": "eece8cea9cdafc458347ff59b4b2a343cd4c8c56"
        },
        {
          "path": "controllers\/IndexController.19Oct2019php",
          "dir": false,
          "file": true,
          "perms": "0644",
          "size": 14376,
          "sha1": "ef1af6a7b340fab20bed91f0bc9d7b84a16ad9e2"
        },
        {
          "path": "controllers\/IndexController.22Oct2019php",
          "dir": false,
          "file": true,
          "perms": "0644",
          "size": 16497,
          "sha1": "59c91335e614a58dfc82cb36e61c9d002f8c721a"
        },
        {
          "path": "controllers\/IssueController.14Oct2019php",
          "dir": false,
          "file": true,
          "perms": "0644",
          "size": 13420,
          "sha1": "c235d728438fe8932ee1d798a5af5ce200fbc797"
        },
        {
          "path": "controllers\/MemberController.11Oct2019php",
          "dir": false,
          "file": true,
          "perms": "0644",
          "size": 4884,
          "sha1": "ebb4d44732b5eb16e0535016800c978bf8b1673b"
        },
        {
          "path": "controllers\/IssueController.17Oct2019php",
          "dir": false,
          "file": true,
          "perms": "0644",
          "size": 14601,
          "sha1": "748a6262e474527d3dce9792c315cb91a41472d2"
        },
        {
          "path": "controllers\/IssueController.16Oct2019php",
          "dir": false,
          "file": true,
          "perms": "0644",
          "size": 13872,
          "sha1": "2b17eb57d6be8750fd8879a86ee01ab953c491aa"
        },
        {
          "path": "controllers\/IssueController.08Oct2019php",
          "dir": false,
          "file": true,
          "perms": "0644",
          "size": 10723,
          "sha1": "b735110d49b3fb6e2dbe4bf712e6c989bc630112"
        },
        {
          "path": "controllers\/IssueController.10Oct2019php",
          "dir": false,
          "file": true,
          "perms": "0644",
          "size": 11237,
          "sha1": "fd02849dc95d1f34141b2dc9a5227e1a0d330381"
        },
        {
          "path": "controllers\/IndexController.24Oct2019php",
          "dir": false,
          "file": true,
          "perms": "0644",
          "size": 17005,
          "sha1": "c55c3cdda3ba49bd4e6d06ab943af45fc7c3f5f4"
        },
        {
          "path": "controllers\/IndexController.16Sep2019php",
          "dir": false,
          "file": true,
          "perms": "0644",
          "size": 5411,
          "sha1": "fc672bc45b919a6819ea5ed40271cb3af12db35e"
        },
        {
          "path": "controllers\/IndexController.03Oct2019php",
          "dir": false,
          "file": true,
          "perms": "0644",
          "size": 5868,
          "sha1": "b81bf1f06b91f74b71115eb6128465c3c4e1bd8e"
        },
        {
          "path": "controllers\/IssueController.03Oct2019php",
          "dir": false,
          "file": true,
          "perms": "0644",
          "size": 8731,
          "sha1": "3aecdc4c35fb47bf56b66018a6dddb7077eb9ae0"
        },
        {
          "path": "controllers\/IssueController.02Oct2019php",
          "dir": false,
          "file": true,
          "perms": "0644",
          "size": 6263,
          "sha1": "e0c7c2bb544420a93efe597c3959bd235f77d466"
        },
        {
          "path": "controllers\/IssueController.18Oct2019php",
          "dir": false,
          "file": true,
          "perms": "0644",
          "size": 15603,
          "sha1": "efe1a86d24b749092418e58bda1ca54fd22af228"
        },
        {
          "path": "controllers\/IssueController.12Oct2019php",
          "dir": false,
          "file": true,
          "perms": "0644",
          "size": 13219,
          "sha1": "de7cf096eb56d9739501a612691140098701dc94"
        },
        {
          "path": "controllers\/IndexController.14Oct2019php",
          "dir": false,
          "file": true,
          "perms": "0644",
          "size": 13557,
          "sha1": "636e66174b0106cd4267253211e55bcb3b9c7cb9"
        },
        {
          "path": "controllers\/IndexController.11Oct2019php",
          "dir": false,
          "file": true,
          "perms": "0644",
          "size": 13194,
          "sha1": "dcd39bf573e9baa8b677606913073553dab072b6"
        },
        {
          "path": "controllers\/MemberController.14Oct2019php",
          "dir": false,
          "file": true,
          "perms": "0644",
          "size": 5650,
          "sha1": "72ff67f99e2623002f3713f8a2ab58169a632683"
        },
        {
          "path": "controllers\/IssueController.09Oct2019php",
          "dir": false,
          "file": true,
          "perms": "0644",
          "size": 11164,
          "sha1": "e28baefff2325d8fc88bc2b165d3e790a9a64777"
        },
        {
          "path": "controllers\/IndexController.13Sep2019php",
          "dir": false,
          "file": true,
          "perms": "0644",
          "size": 5128,
          "sha1": "74f0444e483fa34cb96d6b1aba9c9103248faadb"
        },
        {
          "path": "controllers\/MemberController.php",
          "dir": false,
          "file": true,
          "perms": "0644",
          "size": 5532,
          "sha1": "45cf8e20bdcacdacc6af7ff49b0734ede93e0ee1"
        },
        {
          "path": "controllers\/IndexController.01Oct2019php",
          "dir": false,
          "file": true,
          "perms": "0644",
          "size": 6253,
          "sha1": "2c412f94b33462b6bd8aaf0414f43c3b0b2f5f0c"
        },
        {
          "path": "controllers\/IndexController.21Oct2019php",
          "dir": false,
          "file": true,
          "perms": "0644",
          "size": 16238,
          "sha1": "97e1dafff827f6a15a7e7dbd6dae56fec8584bda"
        },
        {
          "path": "externals",
          "dir": true,
          "file": false,
          "perms": "0755",
          "size": 4096,
          "sha1": null
        },
        {
          "path": "externals\/images",
          "dir": true,
          "file": false,
          "perms": "0755",
          "size": 4096,
          "sha1": null
        },
        {
          "path": "externals\/images\/property_default.---png",
          "dir": false,
          "file": true,
          "perms": "0644",
          "size": 9726,
          "sha1": "9f0e3ab28dc02877835847a6a257bec29adbfd1c"
        },
        {
          "path": "externals\/images\/.htempty",
          "dir": false,
          "file": true,
          "perms": "0644",
          "size": 0,
          "sha1": "da39a3ee5e6b4b0d3255bfef95601890afd80709"
        },
        {
          "path": "externals\/images\/property_default.15Oct2019png",
          "dir": false,
          "file": true,
          "perms": "0644",
          "size": 158203,
          "sha1": "dd7422f93d6982fe3ec78d3bae87183181b241c8"
        },
        {
          "path": "externals\/images\/user.png",
          "dir": false,
          "file": true,
          "perms": "0644",
          "size": 17416,
          "sha1": "e8d734d8b86cab3d52464f154f1d882c3d1e4379"
        },
        {
          "path": "externals\/images\/nophoto_user_thumb_icon.png",
          "dir": false,
          "file": true,
          "perms": "0644",
          "size": 712,
          "sha1": "8816a51ff81ea44adbd621079c14f5870393ec17"
        },
        {
          "path": "externals\/images\/property_default.png",
          "dir": false,
          "file": true,
          "perms": "0644",
          "size": 38692,
          "sha1": "f37ef98a9824a17c4186d329925ec4b299ff3a13"
        },
        {
          "path": "externals\/styles",
          "dir": true,
          "file": false,
          "perms": "0755",
          "size": 4096,
          "sha1": null
        },
        {
          "path": "externals\/styles\/main.13Sep2019css",
          "dir": false,
          "file": true,
          "perms": "0644",
          "size": 0,
          "sha1": "da39a3ee5e6b4b0d3255bfef95601890afd80709"
        },
        {
          "path": "externals\/styles\/main.css",
          "dir": false,
          "file": true,
          "perms": "0644",
          "size": 8888,
          "sha1": "a58adf241bc3b6ac77e773ff7ff057e6eba28c24"
        },
        {
          "path": "externals\/.htaccess",
          "dir": false,
          "file": true,
          "perms": "0644",
          "size": 147,
          "sha1": "9f1638a8edbe1c5d28789e017fb35b2f2465f01e"
        },
        {
          "path": "externals\/scripts",
          "dir": true,
          "file": false,
          "perms": "0755",
          "size": 4096,
          "sha1": null
        },
        {
          "path": "externals\/scripts\/.htempty",
          "dir": false,
          "file": true,
          "perms": "0644",
          "size": 0,
          "sha1": "da39a3ee5e6b4b0d3255bfef95601890afd80709"
        },
        {
          "path": "Bootstrap.php",
          "dir": false,
          "file": true,
          "perms": "0644",
          "size": 87,
          "sha1": "f5e32db71b2d03a6c904b7469e7869a389a5c6f9"
        },
        {
          "path": "Form",
          "dir": true,
          "file": false,
          "perms": "0755",
          "size": 4096,
          "sha1": null
        },
        {
          "path": "Form\/Upload.php",
          "dir": false,
          "file": true,
          "perms": "0644",
          "size": 946,
          "sha1": "06bb95e38a8dd89d39dcc66fe9c13c7d699b8f1b"
        },
        {
          "path": "Form\/Delete.php",
          "dir": false,
          "file": true,
          "perms": "0644",
          "size": 1265,
          "sha1": "ae8a53f5900ef2a15b82b050322214d9d378aad5"
        },
        {
          "path": "Form\/Member",
          "dir": true,
          "file": false,
          "perms": "0755",
          "size": 4096,
          "sha1": null
        },
        {
          "path": "Form\/Member\/Add.04Nov2019php",
          "dir": false,
          "file": true,
          "perms": "0644",
          "size": 2453,
          "sha1": "460b63e4b241f4ab93e448764821e658294bd576"
        },
        {
          "path": "Form\/Member\/Add.php",
          "dir": false,
          "file": true,
          "perms": "0644",
          "size": 1995,
          "sha1": "ac8897e8d59e986bc1c16b6b38036ef00e151a87"
        },
        {
          "path": "Form\/Edit.php",
          "dir": false,
          "file": true,
          "perms": "0644",
          "size": 245,
          "sha1": "90c0d0b9be93b697d1b095196ba862cd6f8f5da9"
        },
        {
          "path": "Form\/Create.php",
          "dir": false,
          "file": true,
          "perms": "0644",
          "size": 5438,
          "sha1": "f6c7c90b3981404837cebcf09d294a052ddbd649"
        },
        {
          "path": "Form\/Issue",
          "dir": true,
          "file": false,
          "perms": "0755",
          "size": 4096,
          "sha1": null
        },
        {
          "path": "Form\/Issue\/Reply.php",
          "dir": false,
          "file": true,
          "perms": "0644",
          "size": 1817,
          "sha1": "b27b94cf89f9d486df5e5c93d66d0c884378451f"
        },
        {
          "path": "Form\/Issue\/State.php",
          "dir": false,
          "file": true,
          "perms": "0644",
          "size": 772,
          "sha1": "e615017e59cb047dbe1652bf2aa843a2b9f175ef"
        },
        {
          "path": "Form\/Issue\/Delete.php",
          "dir": false,
          "file": true,
          "perms": "0644",
          "size": 763,
          "sha1": "dc5aab343f0fb5f1b84c11df4ce3e5d3e45bda6e"
        },
        {
          "path": "Form\/Issue\/Create.12Oct2019php",
          "dir": false,
          "file": true,
          "perms": "0644",
          "size": 2805,
          "sha1": "56930db63a4787f6c7e2d41c615623828dcef234"
        },
        {
          "path": "Form\/Issue\/Edit.php",
          "dir": false,
          "file": true,
          "perms": "0644",
          "size": 253,
          "sha1": "e2fd16566cd9d6de279345f6e2cf53a0fcb5a3c9"
        },
        {
          "path": "Form\/Issue\/Create.php",
          "dir": false,
          "file": true,
          "perms": "0644",
          "size": 2641,
          "sha1": "68aaee600df46838415517399a334381729cbb7b"
        }
      ]
    },
    "application\/languages\/en\/property.csv": {
      "type": "file",
      "path": "application\/languages\/en\/property.csv",
      "structure": {
        "path": "property.csv",
        "dir": false,
        "file": true,
        "perms": "0644",
        "size": 365,
        "sha1": "2731c32610c4d8f3aa1fc42aa0bc40d0e4a58f5e"
      }
    }
  }
}